{
  "api_key": "",
  "test": {
    "fmf": {
      "url": "https://gitlab.com/michaelho_redhat/test-centos-mirrors.git",
      "ref": "main",
      "name": "/test"
    }
  },
  "environments": [
    {
      "arch": "x86_64",
      "os": {"compose": "CentOS-Stream-9"}
    }
  ]
}
